IAL-620 Project
…
Top tokens

##  [1] "clumsy"       "gameplayer"   "partner"      "playing"      "iterated"    
##  [6] "prisoners"    "dilemma"      "publicly"     "precommitted" "titfortat"   
## [11] "strategy"     "iteration"    "5"            "youre"        "happily"     
## [16] "raking"       "bonuses"      "cooperation"  "partner"      "unexpectedly"
## [21] "presses"      "defect"       "button"       "uh"           "partner"

Top bigrams

## # A tibble: 15,289 x 2
##    bigram                      n
##    <chr>                   <int>
##  1 slippery slope             15
##  2 slippery slopes            15
##  3 schelling point            14
##  4 brute strength             13
##  5 holocaust denial           12
##  6 medical confidentiality    12
##  7 conspicuously signal        8
##  8 ethics ethics               8
##  9 exist preference            8
## 10 general principle           8
## # ... with 15,279 more rows
…
The plot above shows frequently occurring bigrams, or frequently co-occurring words. Many seem to be what we could describe as typical bigrams, ones that occur across sequences of text in many domains: medical confidentiality, slippery slope, brute strength, global warming, makes sense, and minimum wage. The frequent occurrence of accepting excuse fits in with the argument and analysis theme across the essays.

Some example bigram correlations

Strong bigrams

## # A tibble: 322 x 3
##    item1  item2    correlation
##    <chr>  <chr>          <dbl>
##  1 strong human          1.   
##  2 strong care           0.802
##  3 strong wrong          0.802
##  4 strong hand           0.802
##  5 strong ive            0.802
##  6 strong coming         0.802
##  7 strong give           0.802
##  8 strong possibly       0.802
##  9 strong support        0.802
## 10 strong back           0.802
## # ... with 312 more rows

Pretty bigrams

## # A tibble: 322 x 3
##    item1  item2     correlation
##    <chr>  <chr>           <dbl>
##  1 pretty position        1.   
##  2 pretty wrong           0.802
##  3 pretty work            0.802
##  4 pretty give            0.802
##  5 pretty possibly        0.802
##  6 pretty support         0.802
##  7 pretty principle       0.802
##  8 pretty youre           0.655
##  9 pretty class           0.655
## 10 pretty break           0.655
## # ... with 312 more rows

Philosophical bigrams

## # A tibble: 322 x 3
##    item1         item2      correlation
##    <chr>         <chr>            <dbl>
##  1 philosophical based            0.816
##  2 philosophical exist            0.802
##  3 philosophical contrarian       0.802
##  4 philosophical argument         0.667
##  5 philosophical principle        0.667
##  6 philosophical virtue           0.667
##  7 philosophical slippery         0.612
##  8 philosophical slopes           0.612
##  9 philosophical outcomes         0.612
## 10 philosophical liberal          0.612
## # ... with 312 more rows

Signal bigrams

## # A tibble: 322 x 3
##    item1  item2          correlation
##    <chr>  <chr>                <dbl>
##  1 signal signaling            1    
##  2 signal warming              1    
##  3 signal uneducated           1    
##  4 signal metacontrarian       1    
##  5 signal triad                1    
##  6 signal meta                 1    
##  7 signal defect               0.667
##  8 signal costs                0.667
##  9 signal quality              0.667
## 10 signal academic             0.667
## # ... with 312 more rows
…
